{
  "data": {
    "curPage": 1,
    "datas": [
      {
        "userImage": "",
        "userName": "鸭梨西瓜大",
        "userDistance": "0.2km",
        "userProfile": "你是无意穿堂风，偏偏孤倨引山洪",
        "orderTitle": "重庆邮电大学南门发传单",
        "orderLabel": "文体",
        "orderIntroduce": "今天下午学校南门发传单，有空的同学速来！",
        "orderTime": "2022-01-19 00:52",
        "orderLocation": "重庆邮电大学南门",
        "orderReward": "200",
        "orderPayWay": "日结",
        "orderQuota": 10,
        "orderImage": "https://www.wanandroid.com/wenda/show/21251",
        "orderCountdown": "2022-01-19 00:52",
        "isOrderEnroll": false,
        "isOrderFull": false
      },
      {
        "userImage": "",
        "userName": "小坏蛋",
        "userDistance": "10.2km",
        "userProfile": "心甘情愿给了的，就别耿耿于怀了。",
        "orderTitle": "体育考试",
        "orderLabel": "文体",
        "orderIntroduce": "今天下午三四节，体育考试代考，体育尖子生来！",
        "orderTime": "2022-02-06 10:52",
        "orderLocation": "重庆邮电大学老操场",
        "orderReward": "200",
        "orderPayWay": "日结",
        "orderQuota": 2,
        "orderImage": "https://www.wanandroid.com/wenda/show/21251",
        "orderCountdown": "2022-01-19 00:52",
        "isOrderEnroll": true,
        "isOrderFull": false
      },
      {
        "userImage": "",
        "userName": "张大仙",
        "userDistance": "7.5km",
        "userProfile": "心有猛虎，细嗅蔷薇。",
        "orderTitle": "王者荣耀陪玩",
        "orderLabel": "游戏",
        "orderIntroduce": "求萌妹子一起王者荣耀上分！",
        "orderTime": "2022-02-05 08:45",
        "orderLocation": "网上",
        "orderReward": "30",
        "orderPayWay": "日结",
        "orderQuota": 5,
        "orderImage": "https://www.wanandroid.com/wenda/show/21251",
        "orderCountdown": "2022-01-19 00:52",
        "isOrderEnroll": true,
        "isOrderFull": false
      }
    ],
    "offset": 0,
    "over": false,
    "pageCount": 5,
    "size": 10,
    "total": 50
  },
  "errorCode": 0,
  "errorMsg": ""
}